SP.vcd
$date
    Jan 26, 2023  02:42:09
$end
$version
    TOOL:	ncsim	15.20-s084
$end
$timescale
    10 ps
$end

$scope module TESTBED $end
$var wire      1 !    clk  $end
$var wire      1 "    rst_n  $end
$var wire      1 #    in_valid  $end
$var wire      1 $    out_valid  $end
$var wire      1 %    mem_wen  $end
$var wire      1 &    mem_addr [11] $end
$var wire      1 '    mem_addr [10] $end
$var wire      1 (    mem_addr [9] $end
$var wire      1 )    mem_addr [8] $end
$var wire      1 *    mem_addr [7] $end
$var wire      1 +    mem_addr [6] $end
$var wire      1 ,    mem_addr [5] $end
$var wire      1 -    mem_addr [4] $end
$var wire      1 .    mem_addr [3] $end
$var wire      1 /    mem_addr [2] $end
$var wire      1 0    mem_addr [1] $end
$var wire      1 1    mem_addr [0] $end
$var wire     32 2    inst [31:0] $end
$var wire      1 3    mem_dout [31] $end
$var wire      1 4    mem_dout [30] $end
$var wire      1 5    mem_dout [29] $end
$var wire      1 6    mem_dout [28] $end
$var wire      1 7    mem_dout [27] $end
$var wire      1 8    mem_dout [26] $end
$var wire      1 9    mem_dout [25] $end
$var wire      1 :    mem_dout [24] $end
$var wire      1 ;    mem_dout [23] $end
$var wire      1 <    mem_dout [22] $end
$var wire      1 =    mem_dout [21] $end
$var wire      1 >    mem_dout [20] $end
$var wire      1 ?    mem_dout [19] $end
$var wire      1 @    mem_dout [18] $end
$var wire      1 A    mem_dout [17] $end
$var wire      1 B    mem_dout [16] $end
$var wire      1 C    mem_dout [15] $end
$var wire      1 D    mem_dout [14] $end
$var wire      1 E    mem_dout [13] $end
$var wire      1 F    mem_dout [12] $end
$var wire      1 G    mem_dout [11] $end
$var wire      1 H    mem_dout [10] $end
$var wire      1 I    mem_dout [9] $end
$var wire      1 J    mem_dout [8] $end
$var wire      1 K    mem_dout [7] $end
$var wire      1 L    mem_dout [6] $end
$var wire      1 M    mem_dout [5] $end
$var wire      1 N    mem_dout [4] $end
$var wire      1 O    mem_dout [3] $end
$var wire      1 P    mem_dout [2] $end
$var wire      1 Q    mem_dout [1] $end
$var wire      1 R    mem_dout [0] $end
$var wire     32 S    inst_addr [31:0] $end
$var wire      1 T    mem_din [31] $end
$var wire      1 U    mem_din [30] $end
$var wire      1 V    mem_din [29] $end
$var wire      1 W    mem_din [28] $end
$var wire      1 X    mem_din [27] $end
$var wire      1 Y    mem_din [26] $end
$var wire      1 Z    mem_din [25] $end
$var wire      1 [    mem_din [24] $end
$var wire      1 \    mem_din [23] $end
$var wire      1 ]    mem_din [22] $end
$var wire      1 ^    mem_din [21] $end
$var wire      1 _    mem_din [20] $end
$var wire      1 `    mem_din [19] $end
$var wire      1 a    mem_din [18] $end
$var wire      1 b    mem_din [17] $end
$var wire      1 c    mem_din [16] $end
$var wire      1 d    mem_din [15] $end
$var wire      1 e    mem_din [14] $end
$var wire      1 f    mem_din [13] $end
$var wire      1 g    mem_din [12] $end
$var wire      1 h    mem_din [11] $end
$var wire      1 i    mem_din [10] $end
$var wire      1 j    mem_din [9] $end
$var wire      1 k    mem_din [8] $end
$var wire      1 l    mem_din [7] $end
$var wire      1 m    mem_din [6] $end
$var wire      1 n    mem_din [5] $end
$var wire      1 o    mem_din [4] $end
$var wire      1 p    mem_din [3] $end
$var wire      1 q    mem_din [2] $end
$var wire      1 r    mem_din [1] $end
$var wire      1 s    mem_din [0] $end
$var integer  32 t    i  $end

$scope module My_SP $end
$var wire      1 !    clk  $end
$var wire      1 "    rst_n  $end
$var wire      1 #    in_valid  $end
$var wire     32 2    inst [31:0] $end
$var wire      1 3    mem_dout [31] $end
$var wire      1 4    mem_dout [30] $end
$var wire      1 5    mem_dout [29] $end
$var wire      1 6    mem_dout [28] $end
$var wire      1 7    mem_dout [27] $end
$var wire      1 8    mem_dout [26] $end
$var wire      1 9    mem_dout [25] $end
$var wire      1 :    mem_dout [24] $end
$var wire      1 ;    mem_dout [23] $end
$var wire      1 <    mem_dout [22] $end
$var wire      1 =    mem_dout [21] $end
$var wire      1 >    mem_dout [20] $end
$var wire      1 ?    mem_dout [19] $end
$var wire      1 @    mem_dout [18] $end
$var wire      1 A    mem_dout [17] $end
$var wire      1 B    mem_dout [16] $end
$var wire      1 C    mem_dout [15] $end
$var wire      1 D    mem_dout [14] $end
$var wire      1 E    mem_dout [13] $end
$var wire      1 F    mem_dout [12] $end
$var wire      1 G    mem_dout [11] $end
$var wire      1 H    mem_dout [10] $end
$var wire      1 I    mem_dout [9] $end
$var wire      1 J    mem_dout [8] $end
$var wire      1 K    mem_dout [7] $end
$var wire      1 L    mem_dout [6] $end
$var wire      1 M    mem_dout [5] $end
$var wire      1 N    mem_dout [4] $end
$var wire      1 O    mem_dout [3] $end
$var wire      1 P    mem_dout [2] $end
$var wire      1 Q    mem_dout [1] $end
$var wire      1 R    mem_dout [0] $end
$var reg       1 u    out_valid  $end
$var reg      32 v    inst_addr [31:0] $end
$var reg       1 w    mem_wen  $end
$var reg      12 x    mem_addr [11:0] $end
$var reg      32 y    mem_din [31:0] $end
$var reg      32 z    inst_r [31:0] $end
$var reg      32 {    inst_w [31:0] $end
$var wire      6 |    opcode [5:0] $end
$var wire      5 }    rs [4:0] $end
$var wire      5 ~    rt [4:0] $end
$var wire      5 !!   rd [4:0] $end
$var wire      5 "!   shamt [4:0] $end
$var wire      6 #!   funct [5:0] $end
$var wire     16 $!   imm [15:0] $end
$var reg      32 %!   PC [31:0] $end
$var reg       5 &!   ra1 [4:0] $end
$var wire     32 '!   rd1 [31:0] $end
$var reg       5 (!   ra2 [4:0] $end
$var wire     32 )!   rd2 [31:0] $end
$var reg       5 *!   wa [4:0] $end
$var reg      32 +!   wd [31:0] $end
$var reg       1 ,!   en_write  $end
$var integer  32 -!   i  $end
$var parameter 32 .!   S_IDLE  $end
$var parameter 32 /!   S_AND  $end
$var parameter 32 0!   S_OR  $end
$var parameter 32 1!   S_ADD  $end
$var parameter 32 2!   S_SUB  $end
$var parameter 32 3!   S_SLT  $end
$var parameter 32 4!   S_SLL  $end
$var parameter 32 5!   S_NOR  $end
$var parameter 32 6!   S_ANDI  $end
$var parameter 32 7!   S_ORI  $end
$var parameter 32 8!   S_ADDI  $end
$var parameter 32 9!   S_SUBI  $end
$var parameter 32 :!   S_LW  $end
$var parameter 32 ;!   S_LWWAIT  $end
$var parameter 32 <!   S_SW  $end
$var parameter 32 =!   S_SWWAIT  $end
$var parameter 32 >!   S_BEQ  $end
$var parameter 32 ?!   S_BNE  $end
$var parameter 32 @!   S_LUI  $end
$var parameter 32 A!   S_OUTPUT  $end
$var reg       6 B!   state_typ_w [5:0] $end
$var reg       6 C!   state_typ_r [5:0] $end
$upscope $end


$scope module My_MEM $end
$var parameter 32 D!   BITS  $end
$var parameter 32 E!   word_depth  $end
$var parameter 32 F!   addr_width  $end
$var parameter 32 G!   wordx  $end
$var parameter 12 H!   addrx  $end
$var wire      1 3    Q [31] $end
$var wire      1 4    Q [30] $end
$var wire      1 5    Q [29] $end
$var wire      1 6    Q [28] $end
$var wire      1 7    Q [27] $end
$var wire      1 8    Q [26] $end
$var wire      1 9    Q [25] $end
$var wire      1 :    Q [24] $end
$var wire      1 ;    Q [23] $end
$var wire      1 <    Q [22] $end
$var wire      1 =    Q [21] $end
$var wire      1 >    Q [20] $end
$var wire      1 ?    Q [19] $end
$var wire      1 @    Q [18] $end
$var wire      1 A    Q [17] $end
$var wire      1 B    Q [16] $end
$var wire      1 C    Q [15] $end
$var wire      1 D    Q [14] $end
$var wire      1 E    Q [13] $end
$var wire      1 F    Q [12] $end
$var wire      1 G    Q [11] $end
$var wire      1 H    Q [10] $end
$var wire      1 I    Q [9] $end
$var wire      1 J    Q [8] $end
$var wire      1 K    Q [7] $end
$var wire      1 L    Q [6] $end
$var wire      1 M    Q [5] $end
$var wire      1 N    Q [4] $end
$var wire      1 O    Q [3] $end
$var wire      1 P    Q [2] $end
$var wire      1 Q    Q [1] $end
$var wire      1 R    Q [0] $end
$var wire      1 !    CLK  $end
$var wire      1 I!   CEN  $end
$var wire      1 %    WEN  $end
$var wire      1 &    A [11] $end
$var wire      1 '    A [10] $end
$var wire      1 (    A [9] $end
$var wire      1 )    A [8] $end
$var wire      1 *    A [7] $end
$var wire      1 +    A [6] $end
$var wire      1 ,    A [5] $end
$var wire      1 -    A [4] $end
$var wire      1 .    A [3] $end
$var wire      1 /    A [2] $end
$var wire      1 0    A [1] $end
$var wire      1 1    A [0] $end
$var wire      1 T    D [31] $end
$var wire      1 U    D [30] $end
$var wire      1 V    D [29] $end
$var wire      1 W    D [28] $end
$var wire      1 X    D [27] $end
$var wire      1 Y    D [26] $end
$var wire      1 Z    D [25] $end
$var wire      1 [    D [24] $end
$var wire      1 \    D [23] $end
$var wire      1 ]    D [22] $end
$var wire      1 ^    D [21] $end
$var wire      1 _    D [20] $end
$var wire      1 `    D [19] $end
$var wire      1 a    D [18] $end
$var wire      1 b    D [17] $end
$var wire      1 c    D [16] $end
$var wire      1 d    D [15] $end
$var wire      1 e    D [14] $end
$var wire      1 f    D [13] $end
$var wire      1 g    D [12] $end
$var wire      1 h    D [11] $end
$var wire      1 i    D [10] $end
$var wire      1 j    D [9] $end
$var wire      1 k    D [8] $end
$var wire      1 l    D [7] $end
$var wire      1 m    D [6] $end
$var wire      1 n    D [5] $end
$var wire      1 o    D [4] $end
$var wire      1 p    D [3] $end
$var wire      1 q    D [2] $end
$var wire      1 r    D [1] $end
$var wire      1 s    D [0] $end
$var wire      1 J!   OEN  $end
$var reg       1 K!   NOT_CEN  $end
$var reg       1 L!   NOT_WEN  $end
$var reg       1 M!   NOT_A0  $end
$var reg       1 N!   NOT_A1  $end
$var reg       1 O!   NOT_A2  $end
$var reg       1 P!   NOT_A3  $end
$var reg       1 Q!   NOT_A4  $end
$var reg       1 R!   NOT_A5  $end
$var reg       1 S!   NOT_A6  $end
$var reg       1 T!   NOT_A7  $end
$var reg       1 U!   NOT_A8  $end
$var reg       1 V!   NOT_A9  $end
$var reg       1 W!   NOT_A10  $end
$var reg       1 X!   NOT_A11  $end
$var reg      12 Y!   NOT_A [11:0] $end
$var reg       1 Z!   NOT_D0  $end
$var reg       1 [!   NOT_D1  $end
$var reg       1 \!   NOT_D2  $end
$var reg       1 ]!   NOT_D3  $end
$var reg       1 ^!   NOT_D4  $end
$var reg       1 _!   NOT_D5  $end
$var reg       1 `!   NOT_D6  $end
$var reg       1 a!   NOT_D7  $end
$var reg       1 b!   NOT_D8  $end
$var reg       1 c!   NOT_D9  $end
$var reg       1 d!   NOT_D10  $end
$var reg       1 e!   NOT_D11  $end
$var reg       1 f!   NOT_D12  $end
$var reg       1 g!   NOT_D13  $end
$var reg       1 h!   NOT_D14  $end
$var reg       1 i!   NOT_D15  $end
$var reg       1 j!   NOT_D16  $end
$var reg       1 k!   NOT_D17  $end
$var reg       1 l!   NOT_D18  $end
$var reg       1 m!   NOT_D19  $end
$var reg       1 n!   NOT_D20  $end
$var reg       1 o!   NOT_D21  $end
$var reg       1 p!   NOT_D22  $end
$var reg       1 q!   NOT_D23  $end
$var reg       1 r!   NOT_D24  $end
$var reg       1 s!   NOT_D25  $end
$var reg       1 t!   NOT_D26  $end
$var reg       1 u!   NOT_D27  $end
$var reg       1 v!   NOT_D28  $end
$var reg       1 w!   NOT_D29  $end
$var reg       1 x!   NOT_D30  $end
$var reg       1 y!   NOT_D31  $end
$var reg      32 z!   NOT_D [31:0] $end
$var reg       1 {!   NOT_CLK_PER  $end
$var reg       1 |!   NOT_CLK_MINH  $end
$var reg       1 }!   NOT_CLK_MINL  $end
$var reg       1 ~!   LAST_NOT_CEN  $end
$var reg       1 !"   LAST_NOT_WEN  $end
$var reg      12 ""   LAST_NOT_A [11:0] $end
$var reg      32 #"   LAST_NOT_D [31:0] $end
$var reg       1 $"   LAST_NOT_CLK_PER  $end
$var reg       1 %"   LAST_NOT_CLK_MINH  $end
$var reg       1 &"   LAST_NOT_CLK_MINL  $end
$var wire      1 '"   _Q [31] $end
$var wire      1 ("   _Q [30] $end
$var wire      1 )"   _Q [29] $end
$var wire      1 *"   _Q [28] $end
$var wire      1 +"   _Q [27] $end
$var wire      1 ,"   _Q [26] $end
$var wire      1 -"   _Q [25] $end
$var wire      1 ."   _Q [24] $end
$var wire      1 /"   _Q [23] $end
$var wire      1 0"   _Q [22] $end
$var wire      1 1"   _Q [21] $end
$var wire      1 2"   _Q [20] $end
$var wire      1 3"   _Q [19] $end
$var wire      1 4"   _Q [18] $end
$var wire      1 5"   _Q [17] $end
$var wire      1 6"   _Q [16] $end
$var wire      1 7"   _Q [15] $end
$var wire      1 8"   _Q [14] $end
$var wire      1 9"   _Q [13] $end
$var wire      1 :"   _Q [12] $end
$var wire      1 ;"   _Q [11] $end
$var wire      1 <"   _Q [10] $end
$var wire      1 ="   _Q [9] $end
$var wire      1 >"   _Q [8] $end
$var wire      1 ?"   _Q [7] $end
$var wire      1 @"   _Q [6] $end
$var wire      1 A"   _Q [5] $end
$var wire      1 B"   _Q [4] $end
$var wire      1 C"   _Q [3] $end
$var wire      1 D"   _Q [2] $end
$var wire      1 E"   _Q [1] $end
$var wire      1 F"   _Q [0] $end
$var wire      1 G"   _OENi  $end
$var wire      1 H"   _A [11] $end
$var wire      1 I"   _A [10] $end
$var wire      1 J"   _A [9] $end
$var wire      1 K"   _A [8] $end
$var wire      1 L"   _A [7] $end
$var wire      1 M"   _A [6] $end
$var wire      1 N"   _A [5] $end
$var wire      1 O"   _A [4] $end
$var wire      1 P"   _A [3] $end
$var wire      1 Q"   _A [2] $end
$var wire      1 R"   _A [1] $end
$var wire      1 S"   _A [0] $end
$var wire      1 T"   _CLK  $end
$var wire      1 U"   _CEN  $end
$var wire      1 V"   _OEN  $end
$var wire      1 W"   _WEN  $end
$var wire      1 X"   _D [31] $end
$var wire      1 Y"   _D [30] $end
$var wire      1 Z"   _D [29] $end
$var wire      1 ["   _D [28] $end
$var wire      1 \"   _D [27] $end
$var wire      1 ]"   _D [26] $end
$var wire      1 ^"   _D [25] $end
$var wire      1 _"   _D [24] $end
$var wire      1 `"   _D [23] $end
$var wire      1 a"   _D [22] $end
$var wire      1 b"   _D [21] $end
$var wire      1 c"   _D [20] $end
$var wire      1 d"   _D [19] $end
$var wire      1 e"   _D [18] $end
$var wire      1 f"   _D [17] $end
$var wire      1 g"   _D [16] $end
$var wire      1 h"   _D [15] $end
$var wire      1 i"   _D [14] $end
$var wire      1 j"   _D [13] $end
$var wire      1 k"   _D [12] $end
$var wire      1 l"   _D [11] $end
$var wire      1 m"   _D [10] $end
$var wire      1 n"   _D [9] $end
$var wire      1 o"   _D [8] $end
$var wire      1 p"   _D [7] $end
$var wire      1 q"   _D [6] $end
$var wire      1 r"   _D [5] $end
$var wire      1 s"   _D [4] $end
$var wire      1 t"   _D [3] $end
$var wire      1 u"   _D [2] $end
$var wire      1 v"   _D [1] $end
$var wire      1 w"   _D [0] $end
$var wire      1 x"   re_flag  $end
$var wire      1 y"   re_data_flag  $end
$var reg       1 z"   LATCHED_CEN  $end
$var reg       1 {"   LATCHED_WEN  $end
$var reg      12 |"   LATCHED_A [11:0] $end
$var reg      32 }"   LATCHED_D [31:0] $end
$var reg       1 ~"   CENi  $end
$var reg       1 !#   WENi  $end
$var reg      12 "#   Ai [11:0] $end
$var reg      32 ##   Di [31:0] $end
$var reg      32 $#   Qi [31:0] $end
$var reg      32 %#   LAST_Qi [31:0] $end
$var reg       1 &#   LAST_CLK  $end

$scope task x_inputs $end
$var integer  32 '#   n  $end
$upscope $end


$scope task read_mem $end
$var reg       1 (#   r_wb  $end
$var reg       1 )#   xflag  $end
$upscope $end


$scope task write_mem $end
$var reg      12 *#   a [11:0] $end
$var reg      32 +#   d [31:0] $end
$upscope $end


$scope task write_mem_x $end
$var reg      12 ,#   a [11:0] $end
$upscope $end


$scope task x_mem $end
$var integer  32 -#   n  $end
$upscope $end


$scope function valid_address $end
$var reg       1 .#   valid_address  $end
$var reg      12 /#   a [11:0] $end
$upscope $end

$upscope $end


$scope module My_PATTERN $end
$var reg       1 0#   clk  $end
$var reg       1 1#   rst_n  $end
$var reg       1 2#   in_valid  $end
$var reg      32 3#   inst [31:0] $end
$var wire      1 $    out_valid  $end
$var wire     32 S    inst_addr [31:0] $end
$var integer  32 4#   pat_num  $end
$var integer  32 5#   out_max_latency  $end
$var integer  32 6#   seed  $end
$var integer  32 7#   i  $end
$var integer  32 8#   t  $end
$var integer  32 9#   pat  $end
$var integer  32 :#   out_counter  $end
$var integer  32 ;#   golden_inst_addr  $end
$var integer  32 <#   opcode  $end
$var integer  32 =#   rs  $end
$var integer  32 >#   rt  $end
$var integer  32 ?#   rd  $end
$var integer  32 @#   shamt  $end
$var integer  32 A#   func  $end
$var integer  32 B#   immediate  $end
$var real     64 C#   CYCLE  $end
$upscope $end

$upscope $end

$enddefinitions $end
$dumpvars
bx H!
bx G!
b1100 F!
b1000000000000 E!
b100000 D!
b10011 A!
b10010 @!
b10001 ?!
b10000 >!
b1111 =!
b1110 <!
b1101 ;!
b1100 :!
b1011 9!
b1010 8!
b1001 7!
b1000 6!
b111 5!
b110 4!
b101 3!
b100 2!
b11 1!
b10 0!
b1 /!
b0 .!
0!
1"
0#
x$
x%
x&
x'
x(
x)
x*
x+
x,
x-
x.
x/
x0
x1
bx 2
x3
x4
x5
x6
x7
x8
x9
x:
x;
x<
x=
x>
x?
x@
xA
xB
xC
xD
xE
xF
xG
xH
xI
xJ
xK
xL
xM
xN
xO
xP
xQ
xR
bx S
xT
xU
xV
xW
xX
xY
xZ
x[
x\
x]
x^
x_
x`
xa
xb
xc
xd
xe
xf
xg
xh
xi
xj
xk
xl
xm
xn
xo
xp
xq
xr
xs
b100000 t
xu
bx v
xw
bx x
bx y
bx z
bx {
bx |
bx }
bx ~
bx !!
bx "!
bx #!
bx $!
bx %!
bx &!
bx '!
bx (!
bx )!
bx *!
bx +!
x,!
bx -!
bx B!
bx C!
0I!
0J!
xK!
xL!
xM!
xN!
xO!
xP!
xQ!
xR!
xS!
xT!
xU!
xV!
xW!
xX!
bx Y!
xZ!
x[!
x\!
x]!
x^!
x_!
x`!
xa!
xb!
xc!
xd!
xe!
xf!
xg!
xh!
xi!
xj!
xk!
xl!
xm!
xn!
xo!
xp!
xq!
xr!
xs!
xt!
xu!
xv!
xw!
xx!
xy!
bx z!
x{!
x|!
x}!
x~!
x!"
bx ""
bx #"
x$"
x%"
x&"
x'"
x("
x)"
x*"
x+"
x,"
x-"
x."
x/"
x0"
x1"
x2"
x3"
x4"
x5"
x6"
x7"
x8"
x9"
x:"
x;"
x<"
x="
x>"
x?"
x@"
xA"
xB"
xC"
xD"
xE"
xF"
0G"
xH"
xI"
xJ"
xK"
xL"
xM"
xN"
xO"
xP"
xQ"
xR"
xS"
0T"
0U"
0V"
xW"
xX"
xY"
xZ"
x["
x\"
x]"
x^"
x_"
x`"
xa"
xb"
xc"
xd"
xe"
xf"
xg"
xh"
xi"
xj"
xk"
xl"
xm"
xn"
xo"
xp"
xq"
xr"
xs"
xt"
xu"
xv"
xw"
1x"
xy"
xz"
x{"
bx |"
bx }"
x~"
x!#
bx "#
bx ##
bx $#
bx %#
0&#
bx '#
x(#
x)#
bx *#
bx +#
bx ,#
bx -#
x.#
bx /#
00#
11#
02#
bx 3#
b101000101 4#
b1010 5#
b1000000 6#
b100000 7#
bx 8#
bx 9#
bx :#
b0 ;#
bx <#
bx =#
bx >#
bx ?#
bx @#
bx A#
bx B#
r10 C#
$end
#1000
01#
0"
b0 z
b0 C!
b0 v
b0 -!
b1 -!
b10 -!
b11 -!
b100 -!
b101 -!
b110 -!
b111 -!
b1000 -!
b1001 -!
b1010 -!
b1011 -!
b1100 -!
b1101 -!
b1110 -!
b1111 -!
b10000 -!
b10001 -!
b10010 -!
b10011 -!
b10100 -!
b10101 -!
b10110 -!
b10111 -!
b11000 -!
b11001 -!
b11010 -!
b11011 -!
b11100 -!
b11101 -!
b11110 -!
b11111 -!
b100000 -!
1w
b0 x
b0 y
0u
b0 {
b0 B!
0$
0T
0U
0V
0W
0X
0Y
0Z
0[
0\
0]
0^
0_
0`
0a
0b
0c
0d
0e
0f
0g
0h
0i
0j
0k
0l
0m
0n
0o
0p
0q
0r
0s
0&
0'
0(
0)
0*
0+
0,
0-
0.
0/
00
01
1%
b0 S
b0 $!
b0 #!
b0 "!
b0 !!
b0 ~
b0 }
b0 |
1W"
0S"
0R"
0Q"
0P"
0O"
0N"
0M"
0L"
0K"
0J"
0I"
0H"
0w"
0v"
0u"
0t"
0s"
0r"
0q"
0p"
0o"
0n"
0m"
0l"
0k"
0j"
0i"
0h"
0g"
0f"
0e"
0d"
0c"
0b"
0a"
0`"
0_"
0^"
0]"
0\"
0["
0Z"
0Y"
0X"
0y"
b0 -!
b1 -!
b10 -!
b11 -!
b100 -!
b101 -!
b110 -!
b111 -!
b1000 -!
b1001 -!
b1010 -!
b1011 -!
b1100 -!
b1101 -!
b1110 -!
b1111 -!
b10000 -!
b10001 -!
b10010 -!
b10011 -!
b10100 -!
b10101 -!
b10110 -!
b10111 -!
b11000 -!
b11001 -!
b11010 -!
b11011 -!
b11100 -!
b11101 -!
b11110 -!
b11111 -!
b100000 -!
#2000
11#
b0 7#
b1 7#
b10 7#
b11 7#
b100 7#
b101 7#
b110 7#
b111 7#
b1000 7#
b1001 7#
b1010 7#
b1011 7#
b1100 7#
b1101 7#
b1110 7#
b1111 7#
b10000 7#
b10001 7#
b10010 7#
b10011 7#
b10100 7#
b10101 7#
b10110 7#
b10111 7#
b11000 7#
b11001 7#
b11010 7#
b11011 7#
b11100 7#
b11101 7#
b11110 7#
b11111 7#
b100000 7#
1"
#3000
b10000110111001101000001 6#
b11 8#
10#
1!
1T"
b0 |"
b0 }"
1{"
0z"
0~"
1!#
b0 "#
b0 ##
1(#
0)#
b0 /#
1.#
b11111111111111111111111111111101 $#
1&#
1'"
1("
1)"
1*"
1+"
1,"
1-"
1."
1/"
10"
11"
12"
13"
14"
15"
16"
17"
18"
19"
1:"
1;"
1<"
1="
1>"
1?"
1@"
1A"
1B"
1C"
1D"
0E"
1F"
#3100
1R
0Q
1P
1O
1N
1M
1L
1K
1J
1I
1H
1G
1F
1E
1D
1C
1B
1A
1@
1?
1>
1=
1<
1;
1:
19
18
17
16
15
14
13
#3500
00#
0!
0T"
0&#
#4000
10#
1!
1T"
b11111111111111111111111111111101 %#
1&#
#4500
00#
0!
0T"
0&#
#5000
10#
1!
1T"
1&#
#5500
00#
b0 9#
b1001000010101000000000110 3#
12#
1#
b1001000010101000000000110 2
0!
0T"
b0 %!
b1001000010101000000000110 {
b1001 &!
b1 (!
b111 B!
0&#
b0 )!
b0 '!
#6000
10#
1!
1T"
1&#
b1001000010101000000000110 z
b111 C!
b0 *!
b11111111111111111111111111111111 +!
1,!
b10011 B!
b101000000000110 $!
b110 #!
b1010 !!
b1 ~
b1001 }
b1010 *!
#6500
00#
bx 3#
02#
b0 :#
b1 :#
0#
bx 2
0!
0T"
0&#
#7000
10#
1!
1T"
1&#
b10011 C!
0,!
1u
b100 v
b0 B!
b100 S
1$
#7500
00#
b0 <#
b1001 =#
b1 >#
b1010 ?#
b0 @#
b110 A#
b101000000000110 B#
b100 ;#
b0 7#
b1 7#
b10 7#
b11 7#
b100 7#
b101 7#
b110 7#
b111 7#
b1000 7#
b1001 7#
b1010 7#
b1011 7#
b1100 7#
b1101 7#
b1110 7#
b1111 7#
b10000 7#
b10001 7#
b10010 7#
b10011 7#
b10100 7#
b10101 7#
b10110 7#
b10111 7#
b11000 7#
b11001 7#
b11010 7#
b11011 7#
b11100 7#
b11101 7#
b11110 7#
b11111 7#
b100000 7#
0!
0T"
0&#
#8000
10#
1!
1T"
1&#
b0 C!
0u
0$
#8500
00#
b1 9#
b10100000000000000111100111100 3#
12#
1#
b10100000000000000111100111100 2
0!
0T"
b100 %!
b10100000000000000111100111100 {
b0 &!
b0 (!
b1100 B!
0&#
#9000
10#
1!
1T"
1&#
b10100000000000000111100111100 z
b1100 C!
b110 x
b1101 B!
1/
10
b111100111100 $!
b111100 #!
b11100 "!
b1 !!
b0 ~
b0 }
b101 |
1R"
1Q"
b111100111100 x
1&
1'
1(
1)
1,
1-
1.
00
0R"
1P"
1O"
1N"
1K"
1J"
1I"
1H"
0O!
0P!
0Q!
0R!
0U!
0V!
0W!
0X!
b0xx0000xx Y!
bx00xxxx00 |"
b1100 '#
b100000 '#
bx00xxxx00 "#
bx00xxxx00 /#
0.#
bx $#
b0xx0000xx ""
x'"
x("
x)"
x*"
x+"
x,"
x-"
x."
x/"
x0"
x1"
x2"
x3"
x4"
x5"
x6"
x7"
x8"
x9"
x:"
x;"
x<"
x="
x>"
x?"
x@"
xA"
xB"
xC"
xD"
xE"
xF"
#9050
xR
xQ
xP
xO
xN
xM
xL
xK
xJ
xI
xH
xG
xF
xE
xD
xC
xB
xA
x@
x?
x>
x=
x<
x;
x:
x9
x8
x7
x6
x5
x4
x3
#9500
00#
bx 3#
02#
b0 :#
b1 :#
0#
bx 2
0!
0T"
0&#
#10000
10#
1!
1T"
b111100111100 |"
bx %#
b111100111100 "#
b111100111100 /#
1.#
b1100 $#
1&#
0'"
0("
0)"
0*"
0+"
0,"
0-"
0."
0/"
00"
01"
02"
03"
04"
05"
06"
07"
08"
09"
0:"
0;"
0<"
0="
0>"
0?"
0@"
0A"
0B"
1C"
1D"
0E"
0F"
b1101 C!
b0 *!
bx +!
1,!
b10011 B!
#10100
0R
0Q
1P
1O
0N
0M
0L
0K
0J
0I
0H
0G
0F
0E
0D
0C
0B
0A
0@
0?
0>
0=
0<
0;
0:
09
08
07
06
05
04
03
b1100 +!
#10500
00#
b10 :#
0!
0T"
0&#
#11000
10#
1!
1T"
b1100 %#
1&#
b10011 C!
b0 x
0,!
1u
b1000 v
b0 B!
b1000 S
1$
0&
0'
0(
0)
0,
0-
0.
0/
0Q"
0P"
0O"
0N"
0K"
0J"
0I"
0H"
1O!
1P!
1Q!
1R!
1U!
1V!
1W!
1X!
b1111xx1111xx Y!
bx00xxxx00 |"
b1100 '#
b100000 '#
bx00xxxx00 "#
bx00xxxx00 /#
0.#
bx $#
b1111xx1111xx ""
x'"
x("
x)"
x*"
x+"
x,"
x-"
x."
x/"
x0"
x1"
x2"
x3"
x4"
x5"
x6"
x7"
x8"
x9"
x:"
x;"
x<"
x="
x>"
x?"
x@"
xA"
xB"
xC"
xD"
xE"
xF"
#11050
xR
xQ
xP
xO
xN
xM
xL
xK
xJ
xI
xH
xG
xF
xE
xD
xC
xB
xA
x@
x?
x>
x=
x<
x;
x:
x9
x8
x7
x6
x5
x4
x3
#11500
00#
b101 <#
b0 =#
b0 >#
b1 ?#
b11100 @#
b111100 A#
b111100111100 B#
b1000 ;#
b0 7#
b1 7#
b10 7#
b11 7#
b100 7#
b101 7#
b110 7#
b111 7#
b1000 7#
b1001 7#
b1010 7#
b1011 7#
b1100 7#
b1101 7#
b1110 7#
b1111 7#
b10000 7#
b10001 7#
b10010 7#
b10011 7#
b10100 7#
b10101 7#
b10110 7#
b10111 7#
b11000 7#
b11001 7#
b11010 7#
b11011 7#
b11100 7#
b11101 7#
b11110 7#
b11111 7#
b100000 7#
0!
0T"
0&#
#12000
10#
1!
1T"
b0 |"
bx %#
b0 "#
b0 /#
1.#
b11111111111111111111111111111101 $#
1&#
1'"
1("
1)"
1*"
1+"
1,"
1-"
1."
1/"
10"
11"
12"
13"
14"
15"
16"
17"
18"
19"
1:"
1;"
1<"
1="
1>"
1?"
1@"
1A"
1B"
1C"
1D"
0E"
1F"
b0 C!
0u
0$
#12100
1R
0Q
1P
1O
1N
1M
1L
1K
1J
1I
1H
1G
1F
1E
1D
1C
1B
1A
1@
1?
1>
1=
1<
1;
1:
19
18
17
16
15
14
13
#12500
00#
b10 9#
b100100000101100000000000010100 3#
12#
1#
b100100000101100000000000010100 2
0!
0T"
b1000 %!
b100100000101100000000000010100 {
b10110 (!
b10010 B!
0&#
#13000
10#
1!
1T"
b11111111111111111111111111111101 %#
1&#
b100100000101100000000000010100 z
b10010 C!
b1111001111000000000000000000 +!
1,!
b10011 B!
b10100 $!
b10100 #!
b0 "!
b0 !!
b10110 ~
b1001 |
b10110 *!
b101000000000000000000 +!
#13500
00#
bx 3#
02#
b0 :#
b1 :#
0#
bx 2
0!
0T"
0&#
#14000
10#
1!
1T"
1&#
b10011 C!
0,!
1u
b1100 v
b0 B!
b101000000000000000000 )!
b1100 S
1$
#14500
00#
b1001 <#
b10110 >#
b0 ?#
b0 @#
b10100 A#
b10100 B#
b1100 ;#
b0 7#
b1 7#
b10 7#
b11 7#
b100 7#
b101 7#
b110 7#
b111 7#
b1000 7#
b1001 7#
b1010 7#
b1011 7#
b1100 7#
b1101 7#
b1110 7#
b1111 7#
b10000 7#
b10001 7#
b10010 7#
b10011 7#
b10100 7#
b10101 7#
b10110 7#
b10111 7#
b11000 7#
b11001 7#
b11010 7#
b11011 7#
b11100 7#
b11101 7#
b11110 7#
b11111 7#
b100000 7#
0!
0T"
0&#
#15000
10#
1!
1T"
1&#
b0 C!
0u
0$
#15500
00#
b11 9#
b10100001000010000001111111110 3#
12#
1#
b10100001000010000001111111110 2
0!
0T"
b1100 %!
b10100001000010000001111111110 {
b1 &!
b1 (!
b1100 B!
0&#
b0 )!
